\relax 
\select@language{english}
\@writefile{toc}{\select@language{english}}
\@writefile{lof}{\select@language{english}}
\@writefile{lot}{\select@language{english}}
\@writefile{toc}{\contentsline {section}{\numberline {1}Series Treatment}{1}}
\@writefile{lof}{\contentsline {figure}{\numberline {1}{\ignorespaces ICMS 2010 ~ 2013 Temporal Serie}}{1}}
\@writefile{toc}{\contentsline {subsection}{\numberline {1.1}ICMS ACF and PACF}{1}}
\@writefile{lof}{\contentsline {figure}{\numberline {2}{\ignorespaces ICMS ACF/PACF from 2010 to 2013 Temporal Serie}}{2}}
\@writefile{toc}{\contentsline {section}{\numberline {2}The Models}{2}}
\@writefile{toc}{\contentsline {subsection}{\numberline {2.1}ARIMA}{2}}
\@writefile{toc}{\contentsline {subsubsection}{\numberline {2.1.1}Model identification}{2}}
\@writefile{toc}{\contentsline {subsubsection}{\numberline {2.1.2}Finding AR(k)}{2}}
\@writefile{lof}{\contentsline {figure}{\numberline {3}{\ignorespaces 1st and 2nd ICMS ACF DIFF from 2010 to 2013 Temporal Serie}}{3}}
\@writefile{toc}{\contentsline {subsubsection}{\numberline {2.1.3}Finding d}{3}}
\@writefile{toc}{\contentsline {subsection}{\numberline {2.2}ARFIMA}{3}}
\@writefile{toc}{\contentsline {section}{\numberline {3}Results}{3}}
\@writefile{toc}{\contentsline {subsection}{\numberline {3.1}ARFIMA Model predicts}{4}}
\@writefile{lof}{\contentsline {figure}{\numberline {4}{\ignorespaces Predicting Series from ARFIMA}}{4}}
\@writefile{toc}{\contentsline {subsection}{\numberline {3.2}ARIMA(2,1,0) Model predicts}{4}}
\@writefile{lof}{\contentsline {figure}{\numberline {5}{\ignorespaces Predicting Series from ARIMA(2,1,0)}}{5}}
\@writefile{toc}{\contentsline {subsection}{\numberline {3.3}ARIMA(2,1,1) Model predicts}{5}}
\@writefile{lof}{\contentsline {figure}{\numberline {6}{\ignorespaces Predicting Series from ARIMA(2,1,1)}}{6}}
\@writefile{toc}{\contentsline {section}{\numberline {4}Conclusions and Future Work}{6}}
