Meses ICMS IPI TOTAL
Janeiro 370028.34 320.07 370348.41
Fevereiro 286532.63 687.58 287220.22
Marco 72244.81 75.23 72320.04
Abril 0.0 0.0 0.0
Maio 0.0 0.0 0.0
Junho 207247.79 472.60 207720.39
Julho 304420.43 542.53 304962.97
Agosto 256108.41 589.98 256698.39
Setembro 288552.09 568.43 289120.52
Outubro 321133.45 597.63 321731.08
Novembro 287392.12 577.09 287969.20
Dezembro 328069.27 596.38 328665.64