Point Forecast    Lo 80  Hi 80  Lo 95    Hi 95
Jan 2014       359912.6 283485.2 436340 243027 476798.3
Point Forecast    Lo 80    Hi 80  Lo 95  Hi 95
Feb 2014       334220.5 258608.5 409832.5 218582 449859
 Point Forecast    Lo 80    Hi 80    Lo 95    Hi 95
Mar 2014       305414.4 230590.1 380238.7 190980.5 419848.3
Point Forecast    Lo 80    Hi 80    Lo 95  Hi 95
Apr 2014       310342.5 236197.1 384487.8 196946.9 423738
Point Forecast    Lo 80    Hi 80    Lo 95    Hi 95
May 2014         322661 249161.6 396160.4 210253.4 435068.6
Point Forecast    Lo 80    Hi 80    Lo 95    Hi 95
Jun 2014       322485.3 249698.1 395272.5 211166.9 433803.7
Point Forecast    Lo 80    Hi 80    Lo 95    Hi 95
Jul 2014       287320.2 214954.4 359686.1 176646.3 397994.2
Point Forecast  Lo 80    Hi 80    Lo 95    Hi 95
Aug 2014       380515.1 306145 454885.3 266775.8 494254.5